-0.422	-209.474
-0.407	-203.436
-0.407	-215.381
-0.375	-209.701
-0.343	-192.165
-0.312	-257.835
-0.189	-259.891
-0.189	-264.991
-0.157	-272.685
-0.154	-251.437
-0.202	-235.600
-0.063	-269.110
-0.111	-226.967
-0.122	-216.187
-0.122	-211.088
-0.144	-188.943
-0.174	-188.052
-0.096	-176.064
-0.094	-153.071
-0.092	-139.290
0.129	-97.776
0.153	-81.089
0.191	-90.039
0.213	-85.566
0.226	-90.397
0.285	-81.406
0.211	-116.608
0.211	-133.342
0.247	-127.931
0.278	-123.722
0.312	-117.146
0.316	-124.930
0.356	-120.458
0.413	-148.240
0.578	-209.658
0.592	-202.771
0.593	-215.834
0.623	-210.734
0.656	-192.798
0.796	-236.053
0.689	-257.438
0.811	-260.122
0.811	-264.953
0.841	-272.110
0.845	-251.131
0.936	-269.336
0.890	-227.241
0.880	-218.249
0.876	-211.003
0.857	-189.222
0.827	-188.014
0.904	-175.442
0.905	-154.236
0.908	-139.295
1.212	-133.257
1.211	-117.424
1.246	-128.157
1.276	-123.954
1.313	-123.642
1.310	-115.500
1.356	-119.703
1.412	-147.126
1.129	-97.247
1.153	-81.415
1.188	-90.048
1.224	-90.048
1.216	-84.948
1.285	-81.948
