-0.422	-103.960
-0.408	-106.064
-0.374	-72.376
-0.189	-95.639
-0.205	-61.375
-0.174	-7.377
-0.144	10.248
-0.095	7.205
-0.120	-6.797
-0.110	-19.949
-0.122	-27.417
-0.157	-30.729
-0.154	-27.106
-0.091	-54.350
-0.059	-65.083
-0.064	-107.447
0.127	-318.418
0.153	-342.034
0.218	-334.878
0.213	-355.229
0.216	-294.797
0.190	-277.394
0.190	-279.809
0.225	-258.830
0.248	-250.734
0.285	-272.789
0.312	-251.541
0.308	-249.126
0.411	-249.083
0.442	-250.291
0.592	-107.319
0.579	-103.427
0.622	-72.381
0.811	-96.266
0.795	-60.974
0.844	-31.941
0.844	-27.738
0.824	-7.740
0.854	9.927
0.905	6.974
0.879	-6.759
0.888	-20.223
0.875	-27.738
0.906	-55.114
0.940	-64.686
0.937	-107.635
1.129	-318.022
1.154	-341.548
1.215	-334.661
1.210	-354.659
1.285	-272.346
1.215	-294.802
1.189	-280.087
1.189	-277.672
1.224	-259.151
1.246	-251.409
1.312	-251.409
1.308	-248.994
1.411	-248.951
1.442	-250.159
