-0.469	-0.233
-0.482	-0.247
-0.493	-0.265
-0.504	-0.281
-0.508	-0.301
-0.508	-0.320
-0.513	-0.338
-0.511	-0.355
-0.508	-0.373
-0.508	-0.397
-0.504	-0.412
-0.499	-0.431
-0.493	-0.446
-0.485	-0.467
-0.474	-0.485
-0.465	-0.505
-0.457	-0.522
-0.446	-0.539
-0.434	-0.553
-0.426	-0.567
-0.415	-0.576
-0.404	-0.588
-0.392	-0.602
-0.379	-0.611
-0.367	-0.620
-0.353	-0.632
-0.341	-0.641
-0.328	-0.649
-0.319	-0.657
-0.306	-0.666
-0.293	-0.676
-0.277	-0.683
-0.266	-0.688
-0.254	-0.697
-0.241	-0.701
-0.228	-0.708
-0.216	-0.712
-0.203	-0.716
-0.189	-0.722
-0.173	-0.728
-0.155	-0.732
-0.136	-0.734
-0.118	-0.740
-0.099	-0.745
-0.079	-0.748
-0.053	-0.749
-0.031	-0.749
-0.009	-0.752
0.008	-0.752
0.027	-0.752
0.049	-0.750
0.069	-0.748
0.086	-0.748
0.103	-0.743
0.118	-0.738
0.135	-0.737
0.152	-0.732
0.170	-0.727
0.183	-0.722
0.196	-0.718
0.209	-0.713
0.225	-0.705
0.240	-0.700
0.253	-0.696
0.267	-0.687
0.280	-0.678
0.293	-0.674
0.306	-0.665
0.320	-0.656
0.333	-0.647
0.346	-0.638
0.359	-0.626
0.369	-0.618
0.382	-0.604
0.391	-0.596
0.403	-0.582
0.417	-0.570
0.425	-0.557
0.436	-0.545
0.447	-0.531
0.455	-0.517
0.464	-0.501
0.472	-0.484
0.482	-0.469
0.487	-0.454
0.496	-0.433
0.499	-0.415
0.503	-0.396
0.507	-0.378
0.507	-0.363
0.507	-0.346
0.507	-0.328
0.505	-0.306
0.502	-0.289
0.492	-0.276
0.485	-0.261
0.477	-0.248
0.468	-0.239
0.454	-0.230
0.440	-0.220
0.424	-0.217
0.409	-0.213
0.390	-0.213
0.377	-0.213
0.359	-0.213
0.344	-0.213
0.327	-0.213
0.315	-0.217
0.299	-0.219
0.281	-0.219
0.259	-0.226
0.244	-0.230
0.226	-0.232
0.205	-0.237
0.188	-0.237
0.170	-0.236
0.152	-0.241
0.139	-0.241
0.126	-0.241
0.109	-0.242
0.092	-0.245
0.075	-0.248
0.054	-0.252
0.035	-0.252
0.017	-0.252
-0.004	-0.249
-0.023	-0.249
-0.038	-0.249
-0.059	-0.249
-0.069	-0.249
-0.086	-0.244
-0.098	-0.244
-0.115	-0.244
-0.133	-0.240
-0.150	-0.240
-0.171	-0.240
-0.185	-0.235
-0.203	-0.232
-0.219	-0.232
-0.241	-0.228
-0.259	-0.228
-0.272	-0.223
-0.288	-0.220
-0.305	-0.220
-0.317	-0.216
-0.331	-0.216
-0.348	-0.211
-0.370	-0.211
-0.383	-0.211
-0.403	-0.211
-0.424	-0.212
-0.437	-0.217
-0.450	-0.221