-0.420	-0.003
-0.419	0.013
-0.412	0.027
-0.408	0.040
-0.399	0.054
-0.387	0.069
-0.374	0.083
-0.363	0.092
-0.352	0.104
-0.334	0.115
-0.319	0.124
-0.303	0.133
-0.289	0.142
-0.272	0.148
-0.255	0.156
-0.237	0.163
-0.222	0.169
-0.203	0.175
-0.185	0.181
-0.161	0.186
-0.145	0.189
-0.127	0.192
-0.105	0.193
-0.083	0.197
-0.059	0.199
-0.039	0.200
-0.019	0.201
0.002	0.202
0.022	0.201
0.038	0.202
0.062	0.202
0.079	0.197
0.098	0.195
0.120	0.194
0.141	0.191
0.169	0.186
0.185	0.177
0.206	0.171
0.219	0.166
0.241	0.162
0.257	0.153
0.272	0.147
0.288	0.139
0.299	0.133
0.310	0.125
0.322	0.117
0.340	0.108
0.353	0.095
0.367	0.083
0.384	0.069
0.398	0.054
0.405	0.039
0.413	0.022
0.413	0.003
0.414	-0.011
0.407	-0.032
0.402	-0.044
0.390	-0.058
0.379	-0.071
0.365	-0.084
0.355	-0.095
0.338	-0.107
0.325	-0.116
0.307	-0.128
0.288	-0.137
0.269	-0.148
0.248	-0.156
0.230	-0.161
0.208	-0.167
0.187	-0.173
0.163	-0.182
0.143	-0.186
0.126	-0.190
0.107	-0.194
0.082	-0.194
0.057	-0.197
0.039	-0.199
0.021	-0.199
0.003	-0.199
-0.016	-0.199
-0.028	-0.199
-0.045	-0.199
-0.066	-0.198
-0.079	-0.195
-0.096	-0.195
-0.110	-0.191
-0.131	-0.191
-0.144	-0.186
-0.159	-0.184
-0.175	-0.180
-0.188	-0.175
-0.201	-0.171
-0.218	-0.166
-0.234	-0.162
-0.246	-0.158
-0.258	-0.153
-0.270	-0.147
-0.283	-0.142
-0.292	-0.138
-0.306	-0.131
-0.316	-0.125
-0.323	-0.118
-0.335	-0.114
-0.345	-0.105
-0.352	-0.100
-0.362	-0.095
-0.367	-0.087
-0.379	-0.077
-0.387	-0.067
-0.395	-0.058
-0.404	-0.049
-0.410	-0.036
-0.417	-0.024
-0.419	-0.013